{
  "locomotive": {
    "weight": 10
  },
  "wagons": [
    {
      "maxPlaceCount": 10,
      "comfortLevel": 1,
      "maxLuggageCount": 10,
      "passengers": [
        {
          "ticketId": 1,
          "luggageWeight": 10
        }
      ]
    },
    {
      "maxPlaceCount": 111,
      "comfortLevel": 0,
      "maxLuggageCount": 10,
      "passengers": [
        {
          "ticketId": 2,
          "luggageWeight": 30
        },
        {
          "ticketId": 5,
          "luggageWeight": 30
        }
      ]
    }
  ]
}